[
    {
        "izena": "Kataluniako Autonomia Erkidegoa",
        "esteka": "https://eu.wikipedia.org/wiki/Kataluniako_Autonomia_Erkidegoa",
        "kategoria": "",
        "azpi-kategoria": "",
        "azpi-azpi-kategoria": ""
    },
    {
        "izena": "Enzebra",
        "esteka": "https://eu.wikipedia.org/wiki/Enzebra",
        "kategoria": "",
        "azpi-kategoria": "",
        "azpi-azpi-kategoria": ""
    },
    {
        "izena": "Guadalcanalgo Kanpaina",
        "esteka": "https://eu.wikipedia.org/wiki/Guadalcanalgo_Kanpaina",
        "kategoria": "",
        "azpi-kategoria": "",
        "azpi-azpi-kategoria": ""
    },
    {
        "izena": "Saint-Pierre eta Mikelune",
        "esteka": "https://eu.wikipedia.org/wiki/Saint-Pierre_eta_Mikelune",
        "kategoria": "",
        "azpi-kategoria": "",
        "azpi-azpi-kategoria": ""
    },
    {
        "izena": "David Bowie",
        "esteka": "https://eu.wikipedia.org/wiki/David_Bowie",
        "kategoria": "",
        "azpi-kategoria": "",
        "azpi-azpi-kategoria": ""
    },
    {
        "izena": "Kongo Belgikarra",
        "esteka": "https://eu.wikipedia.org/wiki/Kongo_Belgikarra",
        "kategoria": "",
        "azpi-kategoria": "",
        "azpi-azpi-kategoria": ""
    },
    {
        "izena": "Bizigarritasun planetario",
        "esteka": "https://eu.wikipedia.org/wiki/Bizigarritasun_planetario",
        "kategoria": "",
        "azpi-kategoria": "",
        "azpi-azpi-kategoria": ""
    },
    {
        "izena": "Jupiter",
        "esteka": "https://eu.wikipedia.org/wiki/Jupiter",
        "kategoria": "",
        "azpi-kategoria": "",
        "azpi-azpi-kategoria": ""
    },
    {
        "izena": "Sabin Arana",
        "esteka": "https://eu.wikipedia.org/wiki/Sabin_Arana",
        "kategoria": "",
        "azpi-kategoria": "",
        "azpi-azpi-kategoria": ""
    },
    {
        "izena": "Bernardo Atxaga",
        "esteka": "https://eu.wikipedia.org/wiki/Bernardo_Atxaga",
        "kategoria": "",
        "azpi-kategoria": "",
        "azpi-azpi-kategoria": ""
    },
    {
        "izena": "Francisco Javier Castaños",
        "esteka": "https://eu.wikipedia.org/wiki/Francisco_Javier_Casta%C3%B1os",
        "kategoria": "",
        "azpi-kategoria": "",
        "azpi-azpi-kategoria": ""
    },
    {
        "izena": "Kellseko liburua",
        "esteka": "https://eu.wikipedia.org/wiki/Kellseko_liburua",
        "kategoria": "",
        "azpi-kategoria": "",
        "azpi-azpi-kategoria": ""
    },
    {
        "izena": "Hipnosi",
        "esteka": "https://eu.wikipedia.org/wiki/Hipnosi",
        "kategoria": "",
        "azpi-kategoria": "",
        "azpi-azpi-kategoria": ""
    },
    {
        "izena": "Andromeda galaxia",
        "esteka": "https://eu.wikipedia.org/wiki/Andromeda_galaxia",
        "kategoria": "",
        "azpi-kategoria": "",
        "azpi-azpi-kategoria": ""
    },
    {
        "izena": "Pazko matxinada",
        "esteka": "https://eu.wikipedia.org/wiki/Pazko_matxinada",
        "kategoria": "",
        "azpi-kategoria": "",
        "azpi-azpi-kategoria": ""
    },
    {
        "izena": "1766ko matxinada",
        "esteka": "https://eu.wikipedia.org/wiki/1766ko_matxinada",
        "kategoria": "",
        "azpi-kategoria": "",
        "azpi-azpi-kategoria": ""
    },
    {
        "izena": "Industria",
        "esteka": "https://eu.wikipedia.org/wiki/Industria",
        "kategoria": "",
        "azpi-kategoria": "",
        "azpi-azpi-kategoria": ""
    },
    {
        "izena": "Marte",
        "esteka": "https://eu.wikipedia.org/wiki/Marte",
        "kategoria": "",
        "azpi-kategoria": "",
        "azpi-azpi-kategoria": ""
    },
    {
        "izena": "M-15 mugimendua",
        "esteka": "https://eu.wikipedia.org/wiki/M-15_mugimendua",
        "kategoria": "",
        "azpi-kategoria": "",
        "azpi-azpi-kategoria": ""
    },
    {
        "izena": "Integral",
        "esteka": "https://eu.wikipedia.org/wiki/Integral",
        "kategoria": "",
        "azpi-kategoria": "",
        "azpi-azpi-kategoria": ""
    },
    {
        "izena": "Eva Perón",
        "esteka": "https://eu.wikipedia.org/wiki/Eva_Per%C3%B3n",
        "kategoria": "",
        "azpi-kategoria": "",
        "azpi-azpi-kategoria": ""
    },
    {
        "izena": "Gernikako bonbardaketa",
        "esteka": "https://eu.wikipedia.org/wiki/Gernikako_bonbardaketa",
        "kategoria": "",
        "azpi-kategoria": "",
        "azpi-azpi-kategoria": ""
    },
    {
        "izena": "Lazarragaren eskuizkribua",
        "esteka": "https://eu.wikipedia.org/wiki/Lazarragaren_eskuizkribua",
        "kategoria": "",
        "azpi-kategoria": "",
        "azpi-azpi-kategoria": ""
    },
    {
        "izena": "Ylitornio",
        "esteka": "https://eu.wikipedia.org/wiki/Ylitornio",
        "kategoria": "",
        "azpi-kategoria": "",
        "azpi-azpi-kategoria": ""
    },
    {
        "izena": "Gizon Basatia",
        "esteka": "https://eu.wikipedia.org/wiki/Gizon_Basatia",
        "kategoria": "",
        "azpi-kategoria": "",
        "azpi-azpi-kategoria": ""
    },
    {
        "izena": "Lapurtarren deportazioa (1794)",
        "esteka": "https://eu.wikipedia.org/wiki/Lapurtarren_deportazioa_(1794)",
        "kategoria": "",
        "azpi-kategoria": "",
        "azpi-azpi-kategoria": ""
    },
    {
        "izena": "Enpresa",
        "esteka": "https://eu.wikipedia.org/wiki/Enpresa",
        "kategoria": "",
        "azpi-kategoria": "",
        "azpi-azpi-kategoria": ""
    },
    {
        "izena": "Basilisko (agintaria)",
        "esteka": "https://eu.wikipedia.org/wiki/Basilisko_(agintaria)",
        "kategoria": "",
        "azpi-kategoria": "",
        "azpi-azpi-kategoria": ""
    },
    {
        "izena": "Eskola",
        "esteka": "https://eu.wikipedia.org/wiki/Eskola",
        "kategoria": "",
        "azpi-kategoria": "",
        "azpi-azpi-kategoria": ""
    },
    {
        "izena": "Konbentzioaren Gerra Euskal Herrian",
        "esteka": "https://eu.wikipedia.org/wiki/Konbentzioaren_Gerra_Euskal_Herrian",
        "kategoria": "",
        "azpi-kategoria": "",
        "azpi-azpi-kategoria": ""
    },
    {
        "izena": "Caracasko Gipuzkoar Konpainia",
        "esteka": "https://eu.wikipedia.org/wiki/Caracasko_Gipuzkoar_Konpainia",
        "kategoria": "",
        "azpi-kategoria": "",
        "azpi-azpi-kategoria": ""
    },
    {
        "izena": "Ekologismo",
        "esteka": "https://eu.wikipedia.org/wiki/Ekologismo",
        "kategoria": "",
        "azpi-kategoria": "",
        "azpi-azpi-kategoria": ""
    },
    {
        "izena": "Ipar Lappi",
        "esteka": "https://eu.wikipedia.org/wiki/Ipar_Lappi",
        "kategoria": "",
        "azpi-kategoria": "",
        "azpi-azpi-kategoria": ""
    },
    {
        "izena": "Pallas-Yllästunturiko Parke Nazionala",
        "esteka": "https://eu.wikipedia.org/wiki/Pallas-Yll%C3%A4stunturiko_Parke_Nazionala",
        "kategoria": "",
        "azpi-kategoria": "",
        "azpi-azpi-kategoria": ""
    },
    {
        "izena": "Kromo",
        "esteka": "https://eu.wikipedia.org/wiki/Kromo",
        "kategoria": "",
        "azpi-kategoria": "",
        "azpi-azpi-kategoria": ""
    },
    {
        "izena": "Manga",
        "esteka": "https://eu.wikipedia.org/wiki/Manga",
        "kategoria": "",
        "azpi-kategoria": "",
        "azpi-azpi-kategoria": ""
    },
    {
        "izena": "Bola joko (herri kirola)",
        "esteka": "https://eu.wikipedia.org/wiki/Bola_joko_(herri_kirola)",
        "kategoria": "",
        "azpi-kategoria": "",
        "azpi-azpi-kategoria": ""
    },
    {
        "izena": "Dublin",
        "esteka": "https://eu.wikipedia.org/wiki/Dublin",
        "kategoria": "",
        "azpi-kategoria": "",
        "azpi-azpi-kategoria": ""
    },
    {
        "izena": "Hirigintza",
        "esteka": "https://eu.wikipedia.org/wiki/Hirigintza",
        "kategoria": "",
        "azpi-kategoria": "",
        "azpi-azpi-kategoria": ""
    },
    {
        "izena": "William Shakespeare",
        "esteka": "https://eu.wikipedia.org/wiki/William_Shakespeare",
        "kategoria": "",
        "azpi-kategoria": "",
        "azpi-azpi-kategoria": ""
    },
    {
        "izena": "Nafarroako Erresumaren inbasioa (1199-1200)",
        "esteka": "https://eu.wikipedia.org/wiki/Nafarroako_Erresumaren_inbasioa_(1199-1200)",
        "kategoria": "",
        "azpi-kategoria": "",
        "azpi-azpi-kategoria": ""
    },
    {
        "izena": "Zaborren berreskurapen informal",
        "esteka": "https://eu.wikipedia.org/wiki/Zaborren_berreskurapen_informal",
        "kategoria": "",
        "azpi-kategoria": "",
        "azpi-azpi-kategoria": ""
    },
    {
        "izena": "Nekazaritza",
        "esteka": "https://eu.wikipedia.org/wiki/Nekazaritza",
        "kategoria": "",
        "azpi-kategoria": "",
        "azpi-azpi-kategoria": ""
    },
    {
        "izena": "Zintzarrotsak",
        "esteka": "https://eu.wikipedia.org/wiki/Zintzarrotsak",
        "kategoria": "",
        "azpi-kategoria": "",
        "azpi-azpi-kategoria": ""
    },
    {
        "izena": "Euskal gatazka",
        "esteka": "https://eu.wikipedia.org/wiki/Euskal_gatazka",
        "kategoria": "",
        "azpi-kategoria": "",
        "azpi-azpi-kategoria": ""
    },
    {
        "izena": "Estatistika",
        "esteka": "https://eu.wikipedia.org/wiki/Estatistika",
        "kategoria": "",
        "azpi-kategoria": "",
        "azpi-azpi-kategoria": ""
    },
    {
        "izena": "Rovaniemi",
        "esteka": "https://eu.wikipedia.org/wiki/Rovaniemi",
        "kategoria": "",
        "azpi-kategoria": "",
        "azpi-azpi-kategoria": ""
    },
    {
        "izena": "Secure Digital",
        "esteka": "https://eu.wikipedia.org/wiki/Secure_Digital",
        "kategoria": "",
        "azpi-kategoria": "",
        "azpi-azpi-kategoria": ""
    },
    {
        "izena": "Esklabotza",
        "esteka": "https://eu.wikipedia.org/wiki/Esklabotza",
        "kategoria": "",
        "azpi-kategoria": "",
        "azpi-azpi-kategoria": ""
    },
    {
        "izena": "Hegazkin",
        "esteka": "https://eu.wikipedia.org/wiki/Hegazkin",
        "kategoria": "",
        "azpi-kategoria": "",
        "azpi-azpi-kategoria": ""
    },
    {
        "izena": "Luigi Galleani",
        "esteka": "https://eu.wikipedia.org/wiki/Luigi_Galleani",
        "kategoria": "",
        "azpi-kategoria": "",
        "azpi-azpi-kategoria": ""
    },
    {
        "izena": "Bakterio",
        "esteka": "https://eu.wikipedia.org/wiki/Bakterio",
        "kategoria": "",
        "azpi-kategoria": "",
        "azpi-azpi-kategoria": ""
    },
    {
        "izena": "Sharon Tate",
        "esteka": "https://eu.wikipedia.org/wiki/Sharon_Tate",
        "kategoria": "",
        "azpi-kategoria": "",
        "azpi-azpi-kategoria": ""
    },
    {
        "izena": "Kemijärvi",
        "esteka": "https://eu.wikipedia.org/wiki/Kemij%C3%A4rvi",
        "kategoria": "",
        "azpi-kategoria": "",
        "azpi-azpi-kategoria": ""
    },
    {
        "izena": "Sirusho",
        "esteka": "https://eu.wikipedia.org/wiki/Sirusho",
        "kategoria": "",
        "azpi-kategoria": "",
        "azpi-azpi-kategoria": ""
    },
    {
        "izena": "Immunitate-sistema",
        "esteka": "https://eu.wikipedia.org/wiki/Immunitate-sistema",
        "kategoria": "",
        "azpi-kategoria": "",
        "azpi-azpi-kategoria": ""
    },
    {
        "izena": "Heriotza mugako esperientzia",
        "esteka": "https://eu.wikipedia.org/wiki/Heriotza_mugako_esperientzia",
        "kategoria": "",
        "azpi-kategoria": "",
        "azpi-azpi-kategoria": ""
    },
    {
        "izena": "Espainiako trantsizioa",
        "esteka": "https://eu.wikipedia.org/wiki/Espainiako_trantsizioa",
        "kategoria": "",
        "azpi-kategoria": "",
        "azpi-azpi-kategoria": ""
    },
    {
        "izena": "Fanerozoiko",
        "esteka": "https://eu.wikipedia.org/wiki/Fanerozoiko",
        "kategoria": "",
        "azpi-kategoria": "",
        "azpi-azpi-kategoria": ""
    },
    {
        "izena": "Kometa",
        "esteka": "https://eu.wikipedia.org/wiki/Kometa",
        "kategoria": "",
        "azpi-kategoria": "",
        "azpi-azpi-kategoria": ""
    },
    {
        "izena": "Segoviako ihesa",
        "esteka": "https://eu.wikipedia.org/wiki/Segoviako_ihesa",
        "kategoria": "",
        "azpi-kategoria": "",
        "azpi-azpi-kategoria": ""
    },
    {
        "izena": "Torne ibarra azpieskualdea",
        "esteka": "https://eu.wikipedia.org/wiki/Torne_ibarra_azpieskualdea",
        "kategoria": "",
        "azpi-kategoria": "",
        "azpi-azpi-kategoria": ""
    },
    {
        "izena": "Frantses nazionalismo",
        "esteka": "https://eu.wikipedia.org/wiki/Frantses_nazionalismo",
        "kategoria": "",
        "azpi-kategoria": "",
        "azpi-azpi-kategoria": ""
    },
    {
        "izena": "Haur-jolas",
        "esteka": "https://eu.wikipedia.org/wiki/Haur-jolas",
        "kategoria": "",
        "azpi-kategoria": "",
        "azpi-azpi-kategoria": ""
    },
    {
        "izena": "Euskararen debekua",
        "esteka": "https://eu.wikipedia.org/wiki/Euskararen_debekua",
        "kategoria": "",
        "azpi-kategoria": "",
        "azpi-azpi-kategoria": ""
    },
    {
        "izena": "Pierre Bourdieu",
        "esteka": "https://eu.wikipedia.org/wiki/Pierre_Bourdieu",
        "kategoria": "",
        "azpi-kategoria": "",
        "azpi-azpi-kategoria": ""
    },
    {
        "izena": "Bosniako gerra",
        "esteka": "https://eu.wikipedia.org/wiki/Bosniako_gerra",
        "kategoria": "",
        "azpi-kategoria": "",
        "azpi-azpi-kategoria": ""
    },
    {
        "izena": "Bermeo",
        "esteka": "https://eu.wikipedia.org/wiki/Bermeo",
        "kategoria": "",
        "azpi-kategoria": "",
        "azpi-azpi-kategoria": ""
    },
    {
        "izena": "Ijitoak Euskal Herrian",
        "esteka": "https://eu.wikipedia.org/wiki/Ijitoak_Euskal_Herrian",
        "kategoria": "",
        "azpi-kategoria": "",
        "azpi-azpi-kategoria": ""
    },
    {
        "izena": "Mark Zuckerberg",
        "esteka": "https://eu.wikipedia.org/wiki/Mark_Zuckerberg",
        "kategoria": "",
        "azpi-kategoria": "",
        "azpi-azpi-kategoria": ""
    },
    {
        "izena": "Charles Dickens",
        "esteka": "https://eu.wikipedia.org/wiki/Charles_Dickens",
        "kategoria": "",
        "azpi-kategoria": "",
        "azpi-azpi-kategoria": ""
    },
    {
        "izena": "Industrializazioa Euskal Herrian",
        "esteka": "https://eu.wikipedia.org/wiki/Industrializazioa_Euskal_Herrian",
        "kategoria": "",
        "azpi-kategoria": "",
        "azpi-azpi-kategoria": ""
    },
    {
        "izena": "Pottoka",
        "esteka": "https://eu.wikipedia.org/wiki/Pottoka",
        "kategoria": "",
        "azpi-kategoria": "",
        "azpi-azpi-kategoria": ""
    },
    {
        "izena": "Uhin-partikula dualtasuna",
        "esteka": "https://eu.wikipedia.org/wiki/Uhin-partikula_dualtasuna",
        "kategoria": "",
        "azpi-kategoria": "",
        "azpi-azpi-kategoria": ""
    },
    {
        "izena": "Bizkaia zubia",
        "esteka": "https://eu.wikipedia.org/wiki/Bizkaia_zubia",
        "kategoria": "",
        "azpi-kategoria": "",
        "azpi-azpi-kategoria": ""
    },
    {
        "izena": "Finlandiako historiaurrea",
        "esteka": "https://eu.wikipedia.org/wiki/Finlandiako_historiaurrea",
        "kategoria": "",
        "azpi-kategoria": "",
        "azpi-azpi-kategoria": ""
    },
    {
        "izena": "Bilboko metroa",
        "esteka": "https://eu.wikipedia.org/wiki/Bilboko_metroa",
        "kategoria": "",
        "azpi-kategoria": "",
        "azpi-azpi-kategoria": ""
    },
    {
        "izena": "Euskal Herriko bertako etxabereen arrazak",
        "esteka": "https://eu.wikipedia.org/wiki/Euskal_Herriko_bertako_etxabereen_arrazak",
        "kategoria": "",
        "azpi-kategoria": "",
        "azpi-azpi-kategoria": ""
    },
    {
        "izena": "Albert Einstein",
        "esteka": "https://eu.wikipedia.org/wiki/Albert_Einstein",
        "kategoria": "",
        "azpi-kategoria": "",
        "azpi-azpi-kategoria": ""
    },
    {
        "izena": "Andatza (mendia)",
        "esteka": "https://eu.wikipedia.org/wiki/Andatza_(mendia)",
        "kategoria": "",
        "azpi-kategoria": "",
        "azpi-azpi-kategoria": ""
    },
    {
        "izena": "Gales",
        "esteka": "https://eu.wikipedia.org/wiki/Gales",
        "kategoria": "",
        "azpi-kategoria": "",
        "azpi-azpi-kategoria": ""
    },
    {
        "izena": "Nightwish",
        "esteka": "https://eu.wikipedia.org/wiki/Nightwish",
        "kategoria": "",
        "azpi-kategoria": "",
        "azpi-azpi-kategoria": ""
    },
    {
        "izena": "Gasteiz",
        "esteka": "https://eu.wikipedia.org/wiki/Gasteiz",
        "kategoria": "",
        "azpi-kategoria": "",
        "azpi-azpi-kategoria": ""
    },
    {
        "izena": "Kalkuta",
        "esteka": "https://eu.wikipedia.org/wiki/Kalkuta",
        "kategoria": "",
        "azpi-kategoria": "",
        "azpi-azpi-kategoria": ""
    },
    {
        "izena": "Viana",
        "esteka": "https://eu.wikipedia.org/wiki/Viana",
        "kategoria": "",
        "azpi-kategoria": "",
        "azpi-azpi-kategoria": ""
    },
    {
        "izena": "Lehen Mundu Gerra",
        "esteka": "https://eu.wikipedia.org/wiki/Lehen_Mundu_Gerra",
        "kategoria": "",
        "azpi-kategoria": "",
        "azpi-azpi-kategoria": ""
    },
    {
        "izena": "Obanosko Infantzoien Biltzarrak",
        "esteka": "https://eu.wikipedia.org/wiki/Obanosko_Infantzoien_Biltzarrak",
        "kategoria": "",
        "azpi-kategoria": "",
        "azpi-azpi-kategoria": ""
    },
    {
        "izena": "Real Sociedad",
        "esteka": "https://eu.wikipedia.org/wiki/Real_Sociedad",
        "kategoria": "",
        "azpi-kategoria": "",
        "azpi-azpi-kategoria": ""
    },
    {
        "izena": "Proxima Centauri",
        "esteka": "https://eu.wikipedia.org/wiki/Proxima_Centauri",
        "kategoria": "",
        "azpi-kategoria": "",
        "azpi-azpi-kategoria": ""
    },
    {
        "izena": "Euskal Kantagintza Berria",
        "esteka": "https://eu.wikipedia.org/wiki/Euskal_Kantagintza_Berria",
        "kategoria": "",
        "azpi-kategoria": "",
        "azpi-azpi-kategoria": ""
    },
    {
        "izena": "Keminmaa",
        "esteka": "https://eu.wikipedia.org/wiki/Keminmaa",
        "kategoria": "",
        "azpi-kategoria": "",
        "azpi-azpi-kategoria": ""
    },
    {
        "izena": "Juan Sebastian Elkano",
        "esteka": "https://eu.wikipedia.org/wiki/Juan_Sebastian_Elkano",
        "kategoria": "",
        "azpi-kategoria": "",
        "azpi-azpi-kategoria": ""
    },
    {
        "izena": "Mohandas Karamchand Gandhi",
        "esteka": "https://eu.wikipedia.org/wiki/Mohandas_Karamchand_Gandhi",
        "kategoria": "",
        "azpi-kategoria": "",
        "azpi-azpi-kategoria": ""
    },
    {
        "izena": "Zirkulazio-aparatu",
        "esteka": "https://eu.wikipedia.org/wiki/Zirkulazio-aparatu",
        "kategoria": "",
        "azpi-kategoria": "",
        "azpi-azpi-kategoria": ""
    },
    {
        "izena": "Neguko Olinpiar Jokoak",
        "esteka": "https://eu.wikipedia.org/wiki/Neguko_Olinpiar_Jokoak",
        "kategoria": "",
        "azpi-kategoria": "",
        "azpi-azpi-kategoria": ""
    },
    {
        "izena": "Artizarra",
        "esteka": "https://eu.wikipedia.org/wiki/Artizarra",
        "kategoria": "",
        "azpi-kategoria": "",
        "azpi-azpi-kategoria": ""
    },
    {
        "izena": "Disonantzia kognitibo",
        "esteka": "https://eu.wikipedia.org/wiki/Disonantzia_kognitibo",
        "kategoria": "",
        "azpi-kategoria": "",
        "azpi-azpi-kategoria": ""
    },
    {
        "izena": "Espainiako Gerra Zibila Donostian (1936)",
        "esteka": "https://eu.wikipedia.org/wiki/Espainiako_Gerra_Zibila_Donostian_(1936)",
        "kategoria": "",
        "azpi-kategoria": "",
        "azpi-azpi-kategoria": ""
    },
    {
        "izena": "Nafarroako konkista",
        "esteka": "https://eu.wikipedia.org/wiki/Nafarroako_konkista",
        "kategoria": "",
        "azpi-kategoria": "",
        "azpi-azpi-kategoria": ""
    },
    {
        "izena": "Iberdrola dorrea",
        "esteka": "https://eu.wikipedia.org/wiki/Iberdrola_dorrea",
        "kategoria": "",
        "azpi-kategoria": "",
        "azpi-azpi-kategoria": ""
    },
    {
        "izena": "Hondarribia",
        "esteka": "https://eu.wikipedia.org/wiki/Hondarribia",
        "kategoria": "",
        "azpi-kategoria": "",
        "azpi-azpi-kategoria": ""
    },
    {
        "izena": "Biziaren jatorria",
        "esteka": "https://eu.wikipedia.org/wiki/Biziaren_jatorria",
        "kategoria": "",
        "azpi-kategoria": "",
        "azpi-azpi-kategoria": ""
    },
    {
        "izena": "Donostia",
        "esteka": "https://eu.wikipedia.org/wiki/Donostia",
        "kategoria": "",
        "azpi-kategoria": "",
        "azpi-azpi-kategoria": ""
    },
    {
        "izena": "Donostiako historia",
        "esteka": "https://eu.wikipedia.org/wiki/Donostiako_historia",
        "kategoria": "",
        "azpi-kategoria": "",
        "azpi-azpi-kategoria": ""
    },
    {
        "izena": "Oneka Ortitz Iruñekoa",
        "esteka": "https://eu.wikipedia.org/wiki/Oneka_Ortitz_Iru%C3%B1ekoa",
        "kategoria": "",
        "azpi-kategoria": "",
        "azpi-azpi-kategoria": ""
    },
    {
        "izena": "Betizu",
        "esteka": "https://eu.wikipedia.org/wiki/Betizu",
        "kategoria": "",
        "azpi-kategoria": "",
        "azpi-azpi-kategoria": ""
    },
    {
        "izena": "Txernobylgo hondamendia",
        "esteka": "https://eu.wikipedia.org/wiki/Txernobylgo_hondamendia",
        "kategoria": "",
        "azpi-kategoria": "",
        "azpi-azpi-kategoria": ""
    },
    {
        "izena": "Euskal Herriko baleazaleak",
        "esteka": "https://eu.wikipedia.org/wiki/Euskal_Herriko_baleazaleak",
        "kategoria": "",
        "azpi-kategoria": "",
        "azpi-azpi-kategoria": ""
    },
    {
        "izena": "Euskal Herriko ekonomia erromatar garaian",
        "esteka": "https://eu.wikipedia.org/wiki/Euskal_Herriko_ekonomia_erromatar_garaian",
        "kategoria": "",
        "azpi-kategoria": "",
        "azpi-azpi-kategoria": ""
    },
    {
        "izena": "Biktoriano Iraola",
        "esteka": "https://eu.wikipedia.org/wiki/Biktoriano_Iraola",
        "kategoria": "",
        "azpi-kategoria": "",
        "azpi-azpi-kategoria": ""
    },
    {
        "izena": "Kanguru",
        "esteka": "https://eu.wikipedia.org/wiki/Kanguru",
        "kategoria": "",
        "azpi-kategoria": "",
        "azpi-azpi-kategoria": ""
    },
    {
        "izena": "Intsumisio mugimendua Euskal Herrian",
        "esteka": "https://eu.wikipedia.org/wiki/Intsumisio_mugimendua_Euskal_Herrian",
        "kategoria": "",
        "azpi-kategoria": "",
        "azpi-azpi-kategoria": ""
    },
    {
        "izena": "Noam Chomsky",
        "esteka": "https://eu.wikipedia.org/wiki/Noam_Chomsky",
        "kategoria": "",
        "azpi-kategoria": "",
        "azpi-azpi-kategoria": ""
    },
    {
        "izena": "Inari",
        "esteka": "https://eu.wikipedia.org/wiki/Inari",
        "kategoria": "",
        "azpi-kategoria": "",
        "azpi-azpi-kategoria": ""
    },
    {
        "izena": "Gatazkaren konponbidea sustatzeko nazioarteko konferentzia",
        "esteka": "https://eu.wikipedia.org/wiki/Gatazkaren_konponbidea_sustatzeko_nazioarteko_konferentzia",
        "kategoria": "",
        "azpi-kategoria": "",
        "azpi-azpi-kategoria": ""
    },
    {
        "izena": "Marokoko historia",
        "esteka": "https://eu.wikipedia.org/wiki/Marokoko_historia",
        "kategoria": "",
        "azpi-kategoria": "",
        "azpi-azpi-kategoria": ""
    },
    {
        "izena": "Kataluniako Herrialdea",
        "esteka": "https://eu.wikipedia.org/wiki/Kataluniako_Herrialdea",
        "kategoria": "",
        "azpi-kategoria": "",
        "azpi-azpi-kategoria": ""
    },
    {
        "izena": "Bartzelona",
        "esteka": "https://eu.wikipedia.org/wiki/Bartzelona",
        "kategoria": "",
        "azpi-kategoria": "",
        "azpi-azpi-kategoria": ""
    },
    {
        "izena": "Walt Disney",
        "esteka": "https://eu.wikipedia.org/wiki/Walt_Disney",
        "kategoria": "",
        "azpi-kategoria": "",
        "azpi-azpi-kategoria": ""
    },
    {
        "izena": "Zangoza",
        "esteka": "https://eu.wikipedia.org/wiki/Zangoza",
        "kategoria": "",
        "azpi-kategoria": "",
        "azpi-azpi-kategoria": ""
    },
    {
        "izena": "Ipar-katamotz",
        "esteka": "https://eu.wikipedia.org/wiki/Ipar-katamotz",
        "kategoria": "",
        "azpi-kategoria": "",
        "azpi-azpi-kategoria": ""
    },
    {
        "izena": "Baiona",
        "esteka": "https://eu.wikipedia.org/wiki/Baiona",
        "kategoria": "",
        "azpi-kategoria": "",
        "azpi-azpi-kategoria": ""
    },
    {
        "izena": "Foruen amaiera Hego Euskal Herrian",
        "esteka": "https://eu.wikipedia.org/wiki/Foruen_amaiera_Hego_Euskal_Herrian",
        "kategoria": "",
        "azpi-kategoria": "",
        "azpi-azpi-kategoria": ""
    },
    {
        "izena": "Andres Urdaneta",
        "esteka": "https://eu.wikipedia.org/wiki/Andres_Urdaneta",
        "kategoria": "",
        "azpi-kategoria": "",
        "azpi-azpi-kategoria": ""
    },
    {
        "izena": "Lemoizko zentral nuklearra",
        "esteka": "https://eu.wikipedia.org/wiki/Lemoizko_zentral_nuklearra",
        "kategoria": "",
        "azpi-kategoria": "",
        "azpi-azpi-kategoria": ""
    },
    {
        "izena": "Eskozia",
        "esteka": "https://eu.wikipedia.org/wiki/Eskozia",
        "kategoria": "",
        "azpi-kategoria": "",
        "azpi-azpi-kategoria": ""
    },
    {
        "izena": "Iruñerria",
        "esteka": "https://eu.wikipedia.org/wiki/Iru%C3%B1erria",
        "kategoria": "",
        "azpi-kategoria": "",
        "azpi-azpi-kategoria": ""
    },
    {
        "izena": "Getaria (Gipuzkoa)",
        "esteka": "https://eu.wikipedia.org/wiki/Getaria_(Gipuzkoa)",
        "kategoria": "",
        "azpi-kategoria": "",
        "azpi-azpi-kategoria": ""
    },
    {
        "izena": "Nafarroako sorgin ehiza (1525)",
        "esteka": "https://eu.wikipedia.org/wiki/Nafarroako_sorgin_ehiza_(1525)",
        "kategoria": "",
        "azpi-kategoria": "",
        "azpi-azpi-kategoria": ""
    },
    {
        "izena": "Eusko Itsas Gudarostea",
        "esteka": "https://eu.wikipedia.org/wiki/Eusko_Itsas_Gudarostea",
        "kategoria": "",
        "azpi-kategoria": "",
        "azpi-azpi-kategoria": ""
    },
    {
        "izena": "Ameriketako Estatu Batuak",
        "esteka": "https://eu.wikipedia.org/wiki/Ameriketako_Estatu_Batuak",
        "kategoria": "",
        "azpi-kategoria": "",
        "azpi-azpi-kategoria": ""
    },
    {
        "izena": "Muonio",
        "esteka": "https://eu.wikipedia.org/wiki/Muonio",
        "kategoria": "",
        "azpi-kategoria": "",
        "azpi-azpi-kategoria": ""
    },
    {
        "izena": "Finlandiako historia",
        "esteka": "https://eu.wikipedia.org/wiki/Finlandiako_historia",
        "kategoria": "",
        "azpi-kategoria": "",
        "azpi-azpi-kategoria": ""
    },
    {
        "izena": "Zuberoa",
        "esteka": "https://eu.wikipedia.org/wiki/Zuberoa",
        "kategoria": "",
        "azpi-kategoria": "",
        "azpi-azpi-kategoria": ""
    },
    {
        "izena": "Eskoziaren independentziarako 2014ko erreferenduma",
        "esteka": "https://eu.wikipedia.org/wiki/Eskoziaren_independentziarako_2014ko_erreferenduma",
        "kategoria": "",
        "azpi-kategoria": "",
        "azpi-azpi-kategoria": ""
    },
    {
        "izena": "Persepolis",
        "esteka": "https://eu.wikipedia.org/wiki/Persepolis",
        "kategoria": "",
        "azpi-kategoria": "",
        "azpi-azpi-kategoria": ""
    },
    {
        "izena": "Euskal Herriko ardoak",
        "esteka": "https://eu.wikipedia.org/wiki/Euskal_Herriko_ardoak",
        "kategoria": "",
        "azpi-kategoria": "",
        "azpi-azpi-kategoria": ""
    },
    {
        "izena": "Urruntze sozial",
        "esteka": "https://eu.wikipedia.org/wiki/Urruntze_sozial",
        "kategoria": "",
        "azpi-kategoria": "",
        "azpi-azpi-kategoria": ""
    },
    {
        "izena": "Poliziaren gehiegikeria",
        "esteka": "https://eu.wikipedia.org/wiki/Poliziaren_gehiegikeria",
        "kategoria": "",
        "azpi-kategoria": "",
        "azpi-azpi-kategoria": ""
    },
    {
        "izena": "Añanako Gatz Harana",
        "esteka": "https://eu.wikipedia.org/wiki/A%C3%B1anako_Gatz_Harana",
        "kategoria": "",
        "azpi-kategoria": "",
        "azpi-azpi-kategoria": ""
    },
    {
        "izena": "Bihotz",
        "esteka": "https://eu.wikipedia.org/wiki/Bihotz",
        "kategoria": "",
        "azpi-kategoria": "",
        "azpi-azpi-kategoria": ""
    },
    {
        "izena": "Sagardo",
        "esteka": "https://eu.wikipedia.org/wiki/Sagardo",
        "kategoria": "",
        "azpi-kategoria": "",
        "azpi-azpi-kategoria": ""
    },
    {
        "izena": "Poliomielitis",
        "esteka": "https://eu.wikipedia.org/wiki/Poliomielitis",
        "kategoria": "",
        "azpi-kategoria": "",
        "azpi-azpi-kategoria": ""
    },
    {
        "izena": "Hasiera (Biblia)",
        "esteka": "https://eu.wikipedia.org/wiki/Hasiera_(Biblia)",
        "kategoria": "",
        "azpi-kategoria": "",
        "azpi-azpi-kategoria": ""
    },
    {
        "izena": "Asteroide gerrikoa",
        "esteka": "https://eu.wikipedia.org/wiki/Asteroide_gerrikoa",
        "kategoria": "",
        "azpi-kategoria": "",
        "azpi-azpi-kategoria": ""
    },
    {
        "izena": "DNAren erreplikazio",
        "esteka": "https://eu.wikipedia.org/wiki/DNAren_erreplikazio",
        "kategoria": "",
        "azpi-kategoria": "",
        "azpi-azpi-kategoria": ""
    },
    {
        "izena": "Ikurrin",
        "esteka": "https://eu.wikipedia.org/wiki/Ikurrin",
        "kategoria": "",
        "azpi-kategoria": "",
        "azpi-azpi-kategoria": ""
    },
    {
        "izena": "Uro",
        "esteka": "https://eu.wikipedia.org/wiki/Uro",
        "kategoria": "",
        "azpi-kategoria": "",
        "azpi-azpi-kategoria": ""
    },
    {
        "izena": "Katu",
        "esteka": "https://eu.wikipedia.org/wiki/Katu",
        "kategoria": "",
        "azpi-kategoria": "",
        "azpi-azpi-kategoria": ""
    },
    {
        "izena": "Latinezko literatura",
        "esteka": "https://eu.wikipedia.org/wiki/Latinezko_literatura",
        "kategoria": "",
        "azpi-kategoria": "",
        "azpi-azpi-kategoria": ""
    },
    {
        "izena": "Itziar Aizpuru",
        "esteka": "https://eu.wikipedia.org/wiki/Itziar_Aizpuru",
        "kategoria": "",
        "azpi-kategoria": "",
        "azpi-azpi-kategoria": ""
    },
    {
        "izena": "Utsjoki",
        "esteka": "https://eu.wikipedia.org/wiki/Utsjoki",
        "kategoria": "",
        "azpi-kategoria": "",
        "azpi-azpi-kategoria": ""
    },
    {
        "izena": "Lurra",
        "esteka": "https://eu.wikipedia.org/wiki/Lurra",
        "kategoria": "",
        "azpi-kategoria": "",
        "azpi-azpi-kategoria": ""
    },
    {
        "izena": "Rudyard Kipling",
        "esteka": "https://eu.wikipedia.org/wiki/Rudyard_Kipling",
        "kategoria": "",
        "azpi-kategoria": "",
        "azpi-azpi-kategoria": ""
    },
    {
        "izena": "Tunturi Lappi",
        "esteka": "https://eu.wikipedia.org/wiki/Tunturi_Lappi",
        "kategoria": "",
        "azpi-kategoria": "",
        "azpi-azpi-kategoria": ""
    },
    {
        "izena": "2014ko Erabakitzeko Eskubidearen Aldeko Giza Katea",
        "esteka": "https://eu.wikipedia.org/wiki/2014ko_Erabakitzeko_Eskubidearen_Aldeko_Giza_Katea",
        "kategoria": "",
        "azpi-kategoria": "",
        "azpi-azpi-kategoria": ""
    },
    {
        "izena": "Tarpan",
        "esteka": "https://eu.wikipedia.org/wiki/Tarpan",
        "kategoria": "",
        "azpi-kategoria": "",
        "azpi-azpi-kategoria": ""
    },
    {
        "izena": "Kemi",
        "esteka": "https://eu.wikipedia.org/wiki/Kemi",
        "kategoria": "",
        "azpi-kategoria": "",
        "azpi-azpi-kategoria": ""
    },
    {
        "izena": "Konposatu organikoen nomenklatura",
        "esteka": "https://eu.wikipedia.org/wiki/Konposatu_organikoen_nomenklatura",
        "kategoria": "",
        "azpi-kategoria": "",
        "azpi-azpi-kategoria": ""
    },
    {
        "izena": "Mallako Natura Erreserba Hertsia",
        "esteka": "https://eu.wikipedia.org/wiki/Mallako_Natura_Erreserba_Hertsia",
        "kategoria": "",
        "azpi-kategoria": "",
        "azpi-azpi-kategoria": ""
    },
    {
        "izena": "Pier Paolo Pasolini",
        "esteka": "https://eu.wikipedia.org/wiki/Pier_Paolo_Pasolini",
        "kategoria": "",
        "azpi-kategoria": "",
        "azpi-azpi-kategoria": ""
    },
    {
        "izena": "Sodankylä",
        "esteka": "https://eu.wikipedia.org/wiki/Sodankyl%C3%A4",
        "kategoria": "",
        "azpi-kategoria": "",
        "azpi-azpi-kategoria": ""
    },
    {
        "izena": "Aralar",
        "esteka": "https://eu.wikipedia.org/wiki/Aralar",
        "kategoria": "",
        "azpi-kategoria": "",
        "azpi-azpi-kategoria": ""
    },
    {
        "izena": "Karlos II.a Nafarroakoa",
        "esteka": "https://eu.wikipedia.org/wiki/Karlos_II.a_Nafarroakoa",
        "kategoria": "",
        "azpi-kategoria": "",
        "azpi-azpi-kategoria": ""
    },
    {
        "izena": "Otsaileko Iraultza",
        "esteka": "https://eu.wikipedia.org/wiki/Otsaileko_Iraultza",
        "kategoria": "",
        "azpi-kategoria": "",
        "azpi-azpi-kategoria": ""
    },
    {
        "izena": "Trans-Antartika Espedizio Inperiala",
        "esteka": "https://eu.wikipedia.org/wiki/Trans-Antartika_Espedizio_Inperiala",
        "kategoria": "",
        "azpi-kategoria": "",
        "azpi-azpi-kategoria": ""
    },
    {
        "izena": "Lazkao",
        "esteka": "https://eu.wikipedia.org/wiki/Lazkao",
        "kategoria": "",
        "azpi-kategoria": "",
        "azpi-azpi-kategoria": ""
    },
    {
        "izena": "Pasahitz",
        "esteka": "https://eu.wikipedia.org/wiki/Pasahitz",
        "kategoria": "",
        "azpi-kategoria": "",
        "azpi-azpi-kategoria": ""
    },
    {
        "izena": "Teheran",
        "esteka": "https://eu.wikipedia.org/wiki/Teheran",
        "kategoria": "",
        "azpi-kategoria": "",
        "azpi-azpi-kategoria": ""
    },
    {
        "izena": "Frantzisko Xabierkoa",
        "esteka": "https://eu.wikipedia.org/wiki/Frantzisko_Xabierkoa",
        "kategoria": "",
        "azpi-kategoria": "",
        "azpi-azpi-kategoria": ""
    },
    {
        "izena": "Zelula",
        "esteka": "https://eu.wikipedia.org/wiki/Zelula",
        "kategoria": "",
        "azpi-kategoria": "",
        "azpi-azpi-kategoria": ""
    },
    {
        "izena": "Immunitate-sistema eta estresa",
        "esteka": "https://eu.wikipedia.org/wiki/Immunitate-sistema_eta_estresa",
        "kategoria": "",
        "azpi-kategoria": "",
        "azpi-azpi-kategoria": ""
    },
    {
        "izena": "Animalia",
        "esteka": "https://eu.wikipedia.org/wiki/Animalia",
        "kategoria": "",
        "azpi-kategoria": "",
        "azpi-azpi-kategoria": ""
    },
    {
        "izena": "San Mames",
        "esteka": "https://eu.wikipedia.org/wiki/San_Mames",
        "kategoria": "",
        "azpi-kategoria": "",
        "azpi-azpi-kategoria": ""
    },
    {
        "izena": "Kimikaren historia",
        "esteka": "https://eu.wikipedia.org/wiki/Kimikaren_historia",
        "kategoria": "",
        "azpi-kategoria": "",
        "azpi-azpi-kategoria": ""
    },
    {
        "izena": "Che Guevara",
        "esteka": "https://eu.wikipedia.org/wiki/Che_Guevara",
        "kategoria": "",
        "azpi-kategoria": "",
        "azpi-azpi-kategoria": ""
    },
    {
        "izena": "Erromintxel",
        "esteka": "https://eu.wikipedia.org/wiki/Erromintxel",
        "kategoria": "",
        "azpi-kategoria": "",
        "azpi-azpi-kategoria": ""
    },
    {
        "izena": "Mikael Agricola",
        "esteka": "https://eu.wikipedia.org/wiki/Mikael_Agricola",
        "kategoria": "",
        "azpi-kategoria": "",
        "azpi-azpi-kategoria": ""
    },
    {
        "izena": "Baztan",
        "esteka": "https://eu.wikipedia.org/wiki/Baztan",
        "kategoria": "",
        "azpi-kategoria": "",
        "azpi-azpi-kategoria": ""
    },
    {
        "izena": "Enontekiö",
        "esteka": "https://eu.wikipedia.org/wiki/Enonteki%C3%B6",
        "kategoria": "",
        "azpi-kategoria": "",
        "azpi-azpi-kategoria": ""
    },
    {
        "izena": "Kontxako Bandera",
        "esteka": "https://eu.wikipedia.org/wiki/Kontxako_Bandera",
        "kategoria": "",
        "azpi-kategoria": "",
        "azpi-azpi-kategoria": ""
    },
    {
        "izena": "Big Bang",
        "esteka": "https://eu.wikipedia.org/wiki/Big_Bang",
        "kategoria": "",
        "azpi-kategoria": "",
        "azpi-azpi-kategoria": ""
    },
    {
        "izena": "Bilbo",
        "esteka": "https://eu.wikipedia.org/wiki/Bilbo",
        "kategoria": "",
        "azpi-kategoria": "",
        "azpi-azpi-kategoria": ""
    },
    {
        "izena": "Pasaiako portuko kanpo ditxoa",
        "esteka": "https://eu.wikipedia.org/wiki/Pasaiako_portuko_kanpo_ditxoa",
        "kategoria": "",
        "azpi-kategoria": "",
        "azpi-azpi-kategoria": ""
    },
    {
        "izena": "Urano",
        "esteka": "https://eu.wikipedia.org/wiki/Urano",
        "kategoria": "",
        "azpi-kategoria": "",
        "azpi-azpi-kategoria": ""
    },
    {
        "izena": "Gaeltacht",
        "esteka": "https://eu.wikipedia.org/wiki/Gaeltacht",
        "kategoria": "",
        "azpi-kategoria": "",
        "azpi-azpi-kategoria": ""
    },
    {
        "izena": "Birus",
        "esteka": "https://eu.wikipedia.org/wiki/Birus",
        "kategoria": "",
        "azpi-kategoria": "",
        "azpi-azpi-kategoria": ""
    },
    {
        "izena": "New York",
        "esteka": "https://eu.wikipedia.org/wiki/New_York",
        "kategoria": "",
        "azpi-kategoria": "",
        "azpi-azpi-kategoria": ""
    },
    {
        "izena": "2020ko Beiruteko leherketak",
        "esteka": "https://eu.wikipedia.org/wiki/2020ko_Beiruteko_leherketak",
        "kategoria": "",
        "azpi-kategoria": "",
        "azpi-azpi-kategoria": ""
    },
    {
        "izena": "Iberiar Penintsulako Gerra Euskal Herrian",
        "esteka": "https://eu.wikipedia.org/wiki/Iberiar_Penintsulako_Gerra_Euskal_Herrian",
        "kategoria": "",
        "azpi-kategoria": "",
        "azpi-azpi-kategoria": ""
    },
    {
        "izena": "Elektroi",
        "esteka": "https://eu.wikipedia.org/wiki/Elektroi",
        "kategoria": "",
        "azpi-kategoria": "",
        "azpi-azpi-kategoria": ""
    },
    {
        "izena": "Nesle dorreko gertaera",
        "esteka": "https://eu.wikipedia.org/wiki/Nesle_dorreko_gertaera",
        "kategoria": "",
        "azpi-kategoria": "",
        "azpi-azpi-kategoria": ""
    },
    {
        "izena": "Nelson Mandela",
        "esteka": "https://eu.wikipedia.org/wiki/Nelson_Mandela",
        "kategoria": "",
        "azpi-kategoria": "",
        "azpi-azpi-kategoria": ""
    },
    {
        "izena": "Irène Némirovsky",
        "esteka": "https://eu.wikipedia.org/wiki/Ir%C3%A8ne_N%C3%A9mirovsky",
        "kategoria": "",
        "azpi-kategoria": "",
        "azpi-azpi-kategoria": ""
    },
    {
        "izena": "Eli Gallastegi",
        "esteka": "https://eu.wikipedia.org/wiki/Eli_Gallastegi",
        "kategoria": "",
        "azpi-kategoria": "",
        "azpi-azpi-kategoria": ""
    },
    {
        "izena": "Yosemite Parke Nazionala",
        "esteka": "https://eu.wikipedia.org/wiki/Yosemite_Parke_Nazionala",
        "kategoria": "",
        "azpi-kategoria": "",
        "azpi-azpi-kategoria": ""
    },
    {
        "izena": "Etxegabe",
        "esteka": "https://eu.wikipedia.org/wiki/Etxegabe",
        "kategoria": "",
        "azpi-kategoria": "",
        "azpi-azpi-kategoria": ""
    },
    {
        "izena": "Zarautz",
        "esteka": "https://eu.wikipedia.org/wiki/Zarautz",
        "kategoria": "",
        "azpi-kategoria": "",
        "azpi-azpi-kategoria": ""
    },
    {
        "izena": "Higiene",
        "esteka": "https://eu.wikipedia.org/wiki/Higiene",
        "kategoria": "",
        "azpi-kategoria": "",
        "azpi-azpi-kategoria": ""
    },
    {
        "izena": "Pello",
        "esteka": "https://eu.wikipedia.org/wiki/Pello",
        "kategoria": "",
        "azpi-kategoria": "",
        "azpi-azpi-kategoria": ""
    },
    {
        "izena": "Deinonychus",
        "esteka": "https://eu.wikipedia.org/wiki/Deinonychus",
        "kategoria": "",
        "azpi-kategoria": "",
        "azpi-azpi-kategoria": ""
    },
    {
        "izena": "Euskararen jatorria",
        "esteka": "https://eu.wikipedia.org/wiki/Euskararen_jatorria",
        "kategoria": "",
        "azpi-kategoria": "",
        "azpi-azpi-kategoria": ""
    },
    {
        "izena": "Joxe Azurmendi",
        "esteka": "https://eu.wikipedia.org/wiki/Joxe_Azurmendi",
        "kategoria": "",
        "azpi-kategoria": "",
        "azpi-azpi-kategoria": ""
    },
    {
        "izena": "Alfred Hitchcock",
        "esteka": "https://eu.wikipedia.org/wiki/Alfred_Hitchcock",
        "kategoria": "",
        "azpi-kategoria": "",
        "azpi-azpi-kategoria": ""
    },
    {
        "izena": "COVID-19 pandemiak eragindako berrogeialdia Euskal Herrian",
        "esteka": "https://eu.wikipedia.org/wiki/COVID-19_pandemiak_eragindako_berrogeialdia_Euskal_Herrian",
        "kategoria": "",
        "azpi-kategoria": "",
        "azpi-azpi-kategoria": ""
    },
    {
        "izena": "Kongoko krisialdia",
        "esteka": "https://eu.wikipedia.org/wiki/Kongoko_krisialdia",
        "kategoria": "",
        "azpi-kategoria": "",
        "azpi-azpi-kategoria": ""
    },
    {
        "izena": "Foruen amaiera Ipar Euskal Herrian",
        "esteka": "https://eu.wikipedia.org/wiki/Foruen_amaiera_Ipar_Euskal_Herrian",
        "kategoria": "",
        "azpi-kategoria": "",
        "azpi-azpi-kategoria": ""
    },
    {
        "izena": "Olentzero",
        "esteka": "https://eu.wikipedia.org/wiki/Olentzero",
        "kategoria": "",
        "azpi-kategoria": "",
        "azpi-azpi-kategoria": ""
    },
    {
        "izena": "Tornio",
        "esteka": "https://eu.wikipedia.org/wiki/Tornio",
        "kategoria": "",
        "azpi-kategoria": "",
        "azpi-azpi-kategoria": ""
    },
    {
        "izena": "Aljerko Gudua",
        "esteka": "https://eu.wikipedia.org/wiki/Aljerko_Gudua",
        "kategoria": "",
        "azpi-kategoria": "",
        "azpi-azpi-kategoria": ""
    },
    {
        "izena": "Joan Mari Torrealdai",
        "esteka": "https://eu.wikipedia.org/wiki/Joan_Mari_Torrealdai",
        "kategoria": "",
        "azpi-kategoria": "",
        "azpi-azpi-kategoria": ""
    },
    {
        "izena": "Rachel Weisz",
        "esteka": "https://eu.wikipedia.org/wiki/Rachel_Weisz",
        "kategoria": "",
        "azpi-kategoria": "",
        "azpi-azpi-kategoria": ""
    },
    {
        "izena": "Dodo",
        "esteka": "https://eu.wikipedia.org/wiki/Dodo",
        "kategoria": "",
        "azpi-kategoria": "",
        "azpi-azpi-kategoria": ""
    },
    {
        "izena": "Herri Batasuna",
        "esteka": "https://eu.wikipedia.org/wiki/Herri_Batasuna",
        "kategoria": "",
        "azpi-kategoria": "",
        "azpi-azpi-kategoria": ""
    },
    {
        "izena": "Alemaniar nekazarien gerra",
        "esteka": "https://eu.wikipedia.org/wiki/Alemaniar_nekazarien_gerra",
        "kategoria": "",
        "azpi-kategoria": "",
        "azpi-azpi-kategoria": ""
    },
    {
        "izena": "Mauthausen-Gusen kontzentrazio-esparrua",
        "esteka": "https://eu.wikipedia.org/wiki/Mauthausen-Gusen_kontzentrazio-esparrua",
        "kategoria": "",
        "azpi-kategoria": "",
        "azpi-azpi-kategoria": ""
    },
    {
        "izena": "Lortu Arte",
        "esteka": "https://eu.wikipedia.org/wiki/Lortu_Arte",
        "kategoria": "",
        "azpi-kategoria": "",
        "azpi-azpi-kategoria": ""
    },
    {
        "izena": "Montori",
        "esteka": "https://eu.wikipedia.org/wiki/Montori",
        "kategoria": "",
        "azpi-kategoria": "",
        "azpi-azpi-kategoria": ""
    },
    {
        "izena": "José María Sánchez Carrión",
        "esteka": "https://eu.wikipedia.org/wiki/Jos%C3%A9_Mar%C3%ADa_S%C3%A1nchez_Carri%C3%B3n",
        "kategoria": "",
        "azpi-kategoria": "",
        "azpi-azpi-kategoria": ""
    },
    {
        "izena": "Euskal Herriko geologia",
        "esteka": "https://eu.wikipedia.org/wiki/Euskal_Herriko_geologia",
        "kategoria": "",
        "azpi-kategoria": "",
        "azpi-azpi-kategoria": ""
    },
    {
        "izena": "Alfontso I.a Nafarroakoa",
        "esteka": "https://eu.wikipedia.org/wiki/Alfontso_I.a_Nafarroakoa",
        "kategoria": "",
        "azpi-kategoria": "",
        "azpi-azpi-kategoria": ""
    },
    {
        "izena": "Garagardo",
        "esteka": "https://eu.wikipedia.org/wiki/Garagardo",
        "kategoria": "",
        "azpi-kategoria": "",
        "azpi-azpi-kategoria": ""
    },
    {
        "izena": "Martin Arrada Kruzat",
        "esteka": "https://eu.wikipedia.org/wiki/Martin_Arrada_Kruzat",
        "kategoria": "",
        "azpi-kategoria": "",
        "azpi-azpi-kategoria": ""
    },
    {
        "izena": "Mel Gibson",
        "esteka": "https://eu.wikipedia.org/wiki/Mel_Gibson",
        "kategoria": "",
        "azpi-kategoria": "",
        "azpi-azpi-kategoria": ""
    },
    {
        "izena": "Irlanda",
        "esteka": "https://eu.wikipedia.org/wiki/Irlanda",
        "kategoria": "",
        "azpi-kategoria": "",
        "azpi-azpi-kategoria": ""
    },
    {
        "izena": "XVIII. mendea",
        "esteka": "https://eu.wikipedia.org/wiki/XVIII._mendea",
        "kategoria": "",
        "azpi-kategoria": "",
        "azpi-azpi-kategoria": ""
    },
    {
        "izena": "Eguzki-sistema",
        "esteka": "https://eu.wikipedia.org/wiki/Eguzki-sistema",
        "kategoria": "",
        "azpi-kategoria": "",
        "azpi-azpi-kategoria": ""
    },
    {
        "izena": "Leonardo da Vinci",
        "esteka": "https://eu.wikipedia.org/wiki/Leonardo_da_Vinci",
        "kategoria": "",
        "azpi-kategoria": "",
        "azpi-azpi-kategoria": ""
    },
    {
        "izena": "Donostiako arraunketa",
        "esteka": "https://eu.wikipedia.org/wiki/Donostiako_arraunketa",
        "kategoria": "",
        "azpi-kategoria": "",
        "azpi-azpi-kategoria": ""
    },
    {
        "izena": "Birika",
        "esteka": "https://eu.wikipedia.org/wiki/Birika",
        "kategoria": "",
        "azpi-kategoria": "",
        "azpi-azpi-kategoria": ""
    },
    {
        "izena": "Emakumea Antzinako Erroman",
        "esteka": "https://eu.wikipedia.org/wiki/Emakumea_Antzinako_Erroman",
        "kategoria": "",
        "azpi-kategoria": "",
        "azpi-azpi-kategoria": ""
    },
    {
        "izena": "Kristautasuna Euskal Herrian sartzea",
        "esteka": "https://eu.wikipedia.org/wiki/Kristautasuna_Euskal_Herrian_sartzea",
        "kategoria": "",
        "azpi-kategoria": "",
        "azpi-azpi-kategoria": ""
    },
    {
        "izena": "Frenologia",
        "esteka": "https://eu.wikipedia.org/wiki/Frenologia",
        "kategoria": "",
        "azpi-kategoria": "",
        "azpi-azpi-kategoria": ""
    },
    {
        "izena": "Émile Durkheim",
        "esteka": "https://eu.wikipedia.org/wiki/%C3%89mile_Durkheim",
        "kategoria": "",
        "azpi-kategoria": "",
        "azpi-azpi-kategoria": ""
    },
    {
        "izena": "Etorkizun urrunaren denbora-lerroa",
        "esteka": "https://eu.wikipedia.org/wiki/Etorkizun_urrunaren_denbora-lerroa",
        "kategoria": "",
        "azpi-kategoria": "",
        "azpi-azpi-kategoria": ""
    },
    {
        "izena": "Akira Toriyama",
        "esteka": "https://eu.wikipedia.org/wiki/Akira_Toriyama",
        "kategoria": "",
        "azpi-kategoria": "",
        "azpi-azpi-kategoria": ""
    },
    {
        "izena": "Merkurio (planeta)",
        "esteka": "https://eu.wikipedia.org/wiki/Merkurio_(planeta)",
        "kategoria": "",
        "azpi-kategoria": "",
        "azpi-azpi-kategoria": ""
    },
    {
        "izena": "Erresonantzia magnetiko bidezko irudigintza",
        "esteka": "https://eu.wikipedia.org/wiki/Erresonantzia_magnetiko_bidezko_irudigintza",
        "kategoria": "",
        "azpi-kategoria": "",
        "azpi-azpi-kategoria": ""
    },
    {
        "izena": "Oorten hodeia",
        "esteka": "https://eu.wikipedia.org/wiki/Oorten_hodeia",
        "kategoria": "",
        "azpi-kategoria": "",
        "azpi-azpi-kategoria": ""
    },
    {
        "izena": "Cosme Damian Txurruka",
        "esteka": "https://eu.wikipedia.org/wiki/Cosme_Damian_Txurruka",
        "kategoria": "",
        "azpi-kategoria": "",
        "azpi-azpi-kategoria": ""
    },
    {
        "izena": "Marina Tsvetaieva",
        "esteka": "https://eu.wikipedia.org/wiki/Marina_Tsvetaieva",
        "kategoria": "",
        "azpi-kategoria": "",
        "azpi-azpi-kategoria": ""
    },
    {
        "izena": "Vlad Drakula",
        "esteka": "https://eu.wikipedia.org/wiki/Vlad_Drakula",
        "kategoria": "",
        "azpi-kategoria": "",
        "azpi-azpi-kategoria": ""
    },
    {
        "izena": "Hego Sudan",
        "esteka": "https://eu.wikipedia.org/wiki/Hego_Sudan",
        "kategoria": "",
        "azpi-kategoria": "",
        "azpi-azpi-kategoria": ""
    },
    {
        "izena": "Aro Garaikidea",
        "esteka": "https://eu.wikipedia.org/wiki/Aro_Garaikidea",
        "kategoria": "",
        "azpi-kategoria": "",
        "azpi-azpi-kategoria": ""
    },
    {
        "izena": "Esklabotza Afrikan",
        "esteka": "https://eu.wikipedia.org/wiki/Esklabotza_Afrikan",
        "kategoria": "",
        "azpi-kategoria": "",
        "azpi-azpi-kategoria": ""
    },
    {
        "izena": "Pasaiako segada",
        "esteka": "https://eu.wikipedia.org/wiki/Pasaiako_segada",
        "kategoria": "",
        "azpi-kategoria": "",
        "azpi-azpi-kategoria": ""
    },
    {
        "izena": "Transhumanismo",
        "esteka": "https://eu.wikipedia.org/wiki/Transhumanismo",
        "kategoria": "",
        "azpi-kategoria": "",
        "azpi-azpi-kategoria": ""
    },
    {
        "izena": "Txillardegi",
        "esteka": "https://eu.wikipedia.org/wiki/Txillardegi",
        "kategoria": "",
        "azpi-kategoria": "",
        "azpi-azpi-kategoria": ""
    },
    {
        "izena": "Enkarterriko historia",
        "esteka": "https://eu.wikipedia.org/wiki/Enkarterriko_historia",
        "kategoria": "",
        "azpi-kategoria": "",
        "azpi-azpi-kategoria": ""
    },
    {
        "izena": "Euskal Herriko hizkuntzak",
        "esteka": "https://eu.wikipedia.org/wiki/Euskal_Herriko_hizkuntzak",
        "kategoria": "",
        "azpi-kategoria": "",
        "azpi-azpi-kategoria": ""
    },
    {
        "izena": "Iruñeko zitadela",
        "esteka": "https://eu.wikipedia.org/wiki/Iru%C3%B1eko_zitadela",
        "kategoria": "",
        "azpi-kategoria": "",
        "azpi-azpi-kategoria": ""
    },
    {
        "izena": "Bilboko historia",
        "esteka": "https://eu.wikipedia.org/wiki/Bilboko_historia",
        "kategoria": "",
        "azpi-kategoria": "",
        "azpi-azpi-kategoria": ""
    },
    {
        "izena": "Savukoski",
        "esteka": "https://eu.wikipedia.org/wiki/Savukoski",
        "kategoria": "",
        "azpi-kategoria": "",
        "azpi-azpi-kategoria": ""
    },
    {
        "izena": "Berlin",
        "esteka": "https://eu.wikipedia.org/wiki/Berlin",
        "kategoria": "",
        "azpi-kategoria": "",
        "azpi-azpi-kategoria": ""
    },
    {
        "izena": "Edurnezuri",
        "esteka": "https://eu.wikipedia.org/wiki/Edurnezuri",
        "kategoria": "",
        "azpi-kategoria": "",
        "azpi-azpi-kategoria": ""
    },
    {
        "izena": "Jacques Laffitte",
        "esteka": "https://eu.wikipedia.org/wiki/Jacques_Laffitte",
        "kategoria": "",
        "azpi-kategoria": "",
        "azpi-azpi-kategoria": ""
    },
    {
        "izena": "Veneziako Errepublika",
        "esteka": "https://eu.wikipedia.org/wiki/Veneziako_Errepublika",
        "kategoria": "",
        "azpi-kategoria": "",
        "azpi-azpi-kategoria": ""
    },
    {
        "izena": "Alakrana atunontziaren bahiketa",
        "esteka": "https://eu.wikipedia.org/wiki/Alakrana_atunontziaren_bahiketa",
        "kategoria": "",
        "azpi-kategoria": "",
        "azpi-azpi-kategoria": ""
    },
    {
        "izena": "Twice",
        "esteka": "https://eu.wikipedia.org/wiki/Twice",
        "kategoria": "",
        "azpi-kategoria": "",
        "azpi-azpi-kategoria": ""
    },
    {
        "izena": "Saturno",
        "esteka": "https://eu.wikipedia.org/wiki/Saturno",
        "kategoria": "",
        "azpi-kategoria": "",
        "azpi-azpi-kategoria": ""
    },
    {
        "izena": "Selinonte",
        "esteka": "https://eu.wikipedia.org/wiki/Selinonte",
        "kategoria": "",
        "azpi-kategoria": "",
        "azpi-azpi-kategoria": ""
    },
    {
        "izena": "Helio",
        "esteka": "https://eu.wikipedia.org/wiki/Helio",
        "kategoria": "",
        "azpi-kategoria": "",
        "azpi-azpi-kategoria": ""
    },
    {
        "izena": "Eztei",
        "esteka": "https://eu.wikipedia.org/wiki/Eztei",
        "kategoria": "",
        "azpi-kategoria": "",
        "azpi-azpi-kategoria": ""
    },
    {
        "izena": "Orion (konstelazioa)",
        "esteka": "https://eu.wikipedia.org/wiki/Orion_(konstelazioa)",
        "kategoria": "",
        "azpi-kategoria": "",
        "azpi-azpi-kategoria": ""
    },
    {
        "izena": "Espainiar nazionalismo",
        "esteka": "https://eu.wikipedia.org/wiki/Espainiar_nazionalismo",
        "kategoria": "",
        "azpi-kategoria": "",
        "azpi-azpi-kategoria": ""
    },
    {
        "izena": "Kittilä",
        "esteka": "https://eu.wikipedia.org/wiki/Kittil%C3%A4",
        "kategoria": "",
        "azpi-kategoria": "",
        "azpi-azpi-kategoria": ""
    },
    {
        "izena": "Edinburgo",
        "esteka": "https://eu.wikipedia.org/wiki/Edinburgo",
        "kategoria": "",
        "azpi-kategoria": "",
        "azpi-azpi-kategoria": ""
    },
    {
        "izena": "Donostiako Zinemaldia",
        "esteka": "https://eu.wikipedia.org/wiki/Donostiako_Zinemaldia",
        "kategoria": "",
        "azpi-kategoria": "",
        "azpi-azpi-kategoria": ""
    },
    {
        "izena": "Bigarren Mundu Gerra Euskal Herrian",
        "esteka": "https://eu.wikipedia.org/wiki/Bigarren_Mundu_Gerra_Euskal_Herrian",
        "kategoria": "",
        "azpi-kategoria": "",
        "azpi-azpi-kategoria": ""
    },
    {
        "izena": "Parapsikologia",
        "esteka": "https://eu.wikipedia.org/wiki/Parapsikologia",
        "kategoria": "",
        "azpi-kategoria": "",
        "azpi-azpi-kategoria": ""
    },
    {
        "izena": "Entzelado (satelitea)",
        "esteka": "https://eu.wikipedia.org/wiki/Entzelado_(satelitea)",
        "kategoria": "",
        "azpi-kategoria": "",
        "azpi-azpi-kategoria": ""
    },
    {
        "izena": "Eguzkia",
        "esteka": "https://eu.wikipedia.org/wiki/Eguzkia",
        "kategoria": "",
        "azpi-kategoria": "",
        "azpi-azpi-kategoria": ""
    },
    {
        "izena": "Mehdi Ben Barka",
        "esteka": "https://eu.wikipedia.org/wiki/Mehdi_Ben_Barka",
        "kategoria": "",
        "azpi-kategoria": "",
        "azpi-azpi-kategoria": ""
    },
    {
        "izena": "Trebiñu",
        "esteka": "https://eu.wikipedia.org/wiki/Trebi%C3%B1u",
        "kategoria": "",
        "azpi-kategoria": "",
        "azpi-azpi-kategoria": ""
    },
    {
        "izena": "Turismo",
        "esteka": "https://eu.wikipedia.org/wiki/Turismo",
        "kategoria": "",
        "azpi-kategoria": "",
        "azpi-azpi-kategoria": ""
    },
    {
        "izena": "Giza sexualitate",
        "esteka": "https://eu.wikipedia.org/wiki/Giza_sexualitate",
        "kategoria": "",
        "azpi-kategoria": "",
        "azpi-azpi-kategoria": ""
    },
    {
        "izena": "Andrés Espinosa",
        "esteka": "https://eu.wikipedia.org/wiki/Andr%C3%A9s_Espinosa",
        "kategoria": "",
        "azpi-kategoria": "",
        "azpi-azpi-kategoria": ""
    },
    {
        "izena": "Delfosko orakulua",
        "esteka": "https://eu.wikipedia.org/wiki/Delfosko_orakulua",
        "kategoria": "",
        "azpi-kategoria": "",
        "azpi-azpi-kategoria": ""
    },
    {
        "izena": "Sarpen",
        "esteka": "https://eu.wikipedia.org/wiki/Sarpen",
        "kategoria": "",
        "azpi-kategoria": "",
        "azpi-azpi-kategoria": ""
    },
    {
        "izena": "Pelkosenniemi",
        "esteka": "https://eu.wikipedia.org/wiki/Pelkosenniemi",
        "kategoria": "",
        "azpi-kategoria": "",
        "azpi-azpi-kategoria": ""
    },
    {
        "izena": "Xynthia ekaitza",
        "esteka": "https://eu.wikipedia.org/wiki/Xynthia_ekaitza",
        "kategoria": "",
        "azpi-kategoria": "",
        "azpi-azpi-kategoria": ""
    },
    {
        "izena": "Jesusen Gurutziltzaketa",
        "esteka": "https://eu.wikipedia.org/wiki/Jesusen_Gurutziltzaketa",
        "kategoria": "",
        "azpi-kategoria": "",
        "azpi-azpi-kategoria": ""
    },
    {
        "izena": "Ranua",
        "esteka": "https://eu.wikipedia.org/wiki/Ranua",
        "kategoria": "",
        "azpi-kategoria": "",
        "azpi-azpi-kategoria": ""
    },
    {
        "izena": "Ugandako trenbidea",
        "esteka": "https://eu.wikipedia.org/wiki/Ugandako_trenbidea",
        "kategoria": "",
        "azpi-kategoria": "",
        "azpi-azpi-kategoria": ""
    },
    {
        "izena": "Eukarioto",
        "esteka": "https://eu.wikipedia.org/wiki/Eukarioto",
        "kategoria": "",
        "azpi-kategoria": "",
        "azpi-azpi-kategoria": ""
    },
    {
        "izena": "Ingeniaritza genetiko",
        "esteka": "https://eu.wikipedia.org/wiki/Ingeniaritza_genetiko",
        "kategoria": "",
        "azpi-kategoria": "",
        "azpi-azpi-kategoria": ""
    },
    {
        "izena": "Iraultza neolitiko",
        "esteka": "https://eu.wikipedia.org/wiki/Iraultza_neolitiko",
        "kategoria": "",
        "azpi-kategoria": "",
        "azpi-azpi-kategoria": ""
    },
    {
        "izena": "Arduino",
        "esteka": "https://eu.wikipedia.org/wiki/Arduino",
        "kategoria": "",
        "azpi-kategoria": "",
        "azpi-azpi-kategoria": ""
    },
    {
        "izena": "Espainiako Gerra Zibila Euskal Herrian",
        "esteka": "https://eu.wikipedia.org/wiki/Espainiako_Gerra_Zibila_Euskal_Herrian",
        "kategoria": "",
        "azpi-kategoria": "",
        "azpi-azpi-kategoria": ""
    },
    {
        "izena": "Przewalski zaldi",
        "esteka": "https://eu.wikipedia.org/wiki/Przewalski_zaldi",
        "kategoria": "",
        "azpi-kategoria": "",
        "azpi-azpi-kategoria": ""
    },
    {
        "izena": "Kolari",
        "esteka": "https://eu.wikipedia.org/wiki/Kolari",
        "kategoria": "",
        "azpi-kategoria": "",
        "azpi-azpi-kategoria": ""
    },
    {
        "izena": "Euskal Y-a",
        "esteka": "https://eu.wikipedia.org/wiki/Euskal_Y-a",
        "kategoria": "",
        "azpi-kategoria": "",
        "azpi-azpi-kategoria": ""
    }
]